<svg xmlns="http://www.w3.org/2000/svg" xmlns:xlink="http://www.w3.org/1999/xlink" viewBox="0 0 20.875 102.109">
  <defs>
    <style>
      .cls-1, .cls-3 {
        fill: none;
      }

      .cls-2 {
        clip-path: url(#clip-path);
      }

      .cls-3 {
        stroke: #00975c;
        stroke-width: 2px;
      }
    </style>
    <clipPath id="clip-path">
      <path id="Path_32" data-name="Path 32" class="cls-1" d="M0,62.662H20.875V-39.447H0Z" transform="translate(0 39.447)"/>
    </clipPath>
  </defs>
  <g id="Down_Arrow" data-name="Down Arrow" transform="translate(-164.555 -630.166)">
    <g id="Group_32" data-name="Group 32" class="cls-2" transform="translate(164.555 630.166)">
      <g id="Group_30" data-name="Group 30" transform="translate(10.443 0)">
        <path id="Path_30" data-name="Path 30" class="cls-3" d="M0,0V101.159"/>
      </g>
      <g id="Group_31" data-name="Group 31" transform="translate(0.563 92.184)">
        <path id="Path_31" data-name="Path 31" class="cls-3" d="M0,0,9.881,8.974,19.753,0"/>
      </g>
    </g>
  </g>
</svg>
