<svg xmlns="http://www.w3.org/2000/svg" viewBox="0 0 885.981 183.541">
  <g id="fact-logos" transform="translate(-360.374 -264.469)">
      <g id="washing-machine-icon" transform="translate(-13.12 -1535.531)">
        <path id="Path_5" data-name="Path 5" d="M140.475,182.75H0V0H140.475ZM9.354,173.391H131.121V9.359H9.359Z" transform="translate(678 1800)"/>
        <path id="Path_6" data-name="Path 6" d="M-387.88,1586.4a50.865,50.865,0,0,1,50.866-50.865,50.865,50.865,0,0,1,50.866,50.867,50.912,50.912,0,0,1-50.866,50.864A50.866,50.866,0,0,1-387.88,1586.4Zm9.36.008a41.5,41.5,0,0,0,41.5,41.5,41.491,41.491,0,0,0,41.487-41.488,41.574,41.574,0,0,0-41.484-41.522v.023h-.012A41.492,41.492,0,0,0-378.52,1586.4Zm6.081-.025a35.414,35.414,0,0,1,35.411-35.413,35.414,35.414,0,0,1,35.416,35.416,35.486,35.486,0,0,1-35.413,35.411,35.414,35.414,0,0,1-35.414-35.417Zm9.365-.078a26.05,26.05,0,0,0,26.047,26.049,26.051,26.051,0,0,0,26.052-26.052,26.1,26.1,0,0,0-26.049-26.047,26.05,26.05,0,0,0-26.05,26.045Z" transform="translate(1085.147 312.362)"/>
        <circle id="Ellipse_1" data-name="Ellipse 1" cx="6.788" cy="6.788" r="6.788" transform="translate(698.437 1820.827)"/>
        <circle id="Ellipse_2" data-name="Ellipse 2" cx="6.788" cy="6.788" r="6.788" transform="translate(742.193 1820.827)"/>
        <circle id="Ellipse_3" data-name="Ellipse 3" cx="6.788" cy="6.788" r="6.788" transform="translate(762.709 1820.827)"/>
        <circle id="Ellipse_4" data-name="Ellipse 4" cx="6.788" cy="6.788" r="6.788" transform="translate(784.389 1820.827)"/>
      </g>
      <path id="pdf-icon" d="M132.58,35.028,102.492,4.953A17.2,17.2,0,0,0,90.356-.1H17.2A17.26,17.26,0,0,0,0,17.141v149.1a17.208,17.208,0,0,0,17.2,17.2H120.425a17.208,17.208,0,0,0,17.2-17.2V47.209a17.287,17.287,0,0,0-5.053-12.188ZM119.028,45.812H91.753V18.538ZM17.2,166.244V17.141H74.55V54.417a8.585,8.585,0,0,0,8.6,8.6h37.276V166.244Zm89.677-51.507c-4.374-4.3-16.843-3.12-23.084-2.331a31.08,31.08,0,0,1-13.185-16.6,45.077,45.077,0,0,0,1.958-20.074A7.99,7.99,0,0,0,57.3,73.622a51.624,51.624,0,0,0,2.5,24.05,287.8,287.8,0,0,1-12.691,26.667c-7.181,3.7-16.843,9.387-18.279,16.562-1.182,5.66,9.316,19.787,27.275-11.183a177.7,177.7,0,0,1,24.513-7.181,47.688,47.688,0,0,0,20,6.091,8.278,8.278,0,0,0,6.254-13.892ZM35.9,142.618a42.975,42.975,0,0,1,10.9-12.547C39.965,140.908,35.9,142.866,35.9,142.618Zm29.22-68.3c2.65,0,2.4,11.5.653,14.623a30.03,30.03,0,0,1-.648-14.62Zm-8.748,48.961A140.681,140.681,0,0,0,65.229,103.7,39.489,39.489,0,0,0,76.02,116.421a121.26,121.26,0,0,0-19.643,6.861Zm47.166-1.8s-1.8,2.148-13.37-2.794c12.586-.947,14.662,1.919,13.376,2.781Z" transform="translate(360.374 264.569)"/>
    </g>
</svg>
